{
  "Comment.nvim": { "branch": "master", "commit": "0236521ea582747b58869cb72f70ccfa967d2e89" },
  "LuaSnip": { "branch": "master", "commit": "b152822e1a4bafb6bdf11a16cc26525cbd95ee00" },
  "catppuccin": { "branch": "main", "commit": "6af91673ceccbd6e073b66c439e7fce239f72d24" },
  "cmp-buffer": { "branch": "main", "commit": "3022dbc9166796b644a841a02de8dd1cc1d311fa" },
  "cmp-nvim-lsp": { "branch": "main", "commit": "5af77f54de1b16c34b23cba810150689a3a90312" },
  "cmp-nvim-lua": { "branch": "main", "commit": "f12408bdb54c39c23e67cab726264c10db33ada8" },
  "cmp-path": { "branch": "main", "commit": "91ff86cd9c29299a64f968ebb45846c485725f23" },
  "cmp_luasnip": { "branch": "master", "commit": "05a9ab28b53f71d1aece421ef32fee2cb857a843" },
  "crates.nvim": { "branch": "main", "commit": "7d8541ec0e3b30ac2c43864d3ee13a632e1231ed" },
  "friendly-snippets": { "branch": "main", "commit": "fa36367422da5a38560892e3db6d090a635d9d41" },
  "lazy.nvim": { "branch": "main", "commit": "bef521ac89c8d423f9d092e37b58e8af0c099309" },
  "lualine.nvim": { "branch": "master", "commit": "0a5a66803c7407767b799067986b4dc3036e1983" },
  "mason.nvim": { "branch": "main", "commit": "751b1fcbf3d3b783fcf8d48865264a9bcd8f9b10" },
  "none-ls.nvim": { "branch": "main", "commit": "f5632db2491fbe02b54f1a321a98548a8ba2bd15" },
  "nvim-autopairs": { "branch": "master", "commit": "14e97371b2aab6ee70054c1070a123dfaa3e217e" },
  "nvim-cmp": { "branch": "main", "commit": "8f3c541407e691af6163e2447f3af1bd6e17f9a3" },
  "nvim-lspconfig": { "branch": "master", "commit": "9a5a3ebd63b0bf7f8528ed2ca65c8c8bcd2bbeae" },
  "nvim-treesitter": { "branch": "master", "commit": "da0efd7398713a3177da5ce8690f0e5c5415763d" },
  "nvim-web-devicons": { "branch": "master", "commit": "5b9067899ee6a2538891573500e8fd6ff008440f" },
  "pkl-neovim": { "branch": "main", "commit": "4c3bc2cd46085b36b2873c1ae9086aee404b3d90" },
  "plenary.nvim": { "branch": "master", "commit": "08e301982b9a057110ede7a735dd1b5285eb341f" },
  "telescope-file-browser.nvim": { "branch": "master", "commit": "4d5fd21bae12ee6e9a79232e1c377f43c419d0c5" },
  "telescope.nvim": { "branch": "master", "commit": "fac83a556e7b710dc31433dec727361ca062dbe9" },
  "trim.nvim": { "branch": "master", "commit": "4fe47a46c02a58894ded8328ca81f6c214a892f5" },
  "vim-sleuth": { "branch": "master", "commit": "1cc4557420f215d02c4d2645a748a816c220e99b" },
  "vim-tmux-navigator": { "branch": "master", "commit": "a26954a585b02a2ac02f87145e204f8798a7cbc2" },
  "which-key.nvim": { "branch": "main", "commit": "4433e5ec9a507e5097571ed55c02ea9658fb268a" }
}